{
  "id": "99386156647991032",
  "created_at": "2018-01-21T05:26:40.063Z",
  "in_reply_to_id": null,
  "in_reply_to_account_id": null,
  "sensitive": false,
  "spoiler_text": "",
  "visibility": "public",
  "language": "en",
  "uri": "https://botsin.space/users/testingtesting123/statuses/99386156647991032",
  "url": "https://botsin.space/@testingtesting123/99386156647991032",
  "replies_count": 0,
  "reblogs_count": 0,
  "favourites_count": 0,
  "edited_at": null,
  "favourited": false,
  "reblogged": false,
  "muted": false,
  "bookmarked": false,
  "pinned": false,
  "content": "<p>position: -0.1383011763321721 + 0.8550074321180192i<br />pixel width: 5.146316435659457e-06</p>",
  "filtered": [],
  "reblog": null,
  "application": {
    "name": "benoit-mandelbot",
    "website": null
  },
  "account": {
    "id": "22411",
    "username": "testingtesting123",
    "acct": "testingtesting123",
    "display_name": "scratchmonkey_15310",
    "locked": false,
    "bot": false,
    "discoverable": null,
    "group": false,
    "created_at": "2018-01-20T00:00:00.000Z",
    "note": "<p>Account used for bot testing; nothing to see here.</p><p><span class=\"h-card\"><a href=\"https://i.write.codethat.sucks/@suetanvil\" class=\"u-url mention\">@<span>suetanvil</span></a></span><br /><span class=\"h-card\"><a href=\"https://botsin.space/@benoitmandelbot\" class=\"u-url mention\">@<span>benoitmandelbot</span></a></span></p>",
    "url": "https://botsin.space/@testingtesting123",
    "avatar": "https://files.botsin.space/accounts/avatars/000/022/411/original/a701d93a6a1d0497.gif",
    "avatar_static": "https://files.botsin.space/accounts/avatars/000/022/411/static/a701d93a6a1d0497.png",
    "header": "https://botsin.space/headers/original/missing.png",
    "header_static": "https://botsin.space/headers/original/missing.png",
    "followers_count": 2,
    "following_count": 3,
    "statuses_count": 4,
    "last_status_at": null,
    "noindex": true,
    "emojis": [],
    "roles": [],
    "fields": []
  },
  "media_attachments": [
    {
      "id": "342848",
      "type": "image",
      "url": "https://files.botsin.space/media_attachments/files/000/342/848/original/10b11b4822029b13.png",
      "preview_url": "https://files.botsin.space/media_attachments/files/000/342/848/small/10b11b4822029b13.png",
      "remote_url": null,
      "preview_remote_url": null,
      "text_url": "https://botsin.space/media/y_5mgNa2Yzv70_k8H1M",
      "meta": {
        "original": {
          "width": 800,
          "height": 600,
          "size": "800x600",
          "aspect": 1.3333333333333333
        },
        "small": {
          "width": 400,
          "height": 300,
          "size": "400x300",
          "aspect": 1.3333333333333333
        }
      },
      "description": null,
      "blurhash": null
    }
  ],
  "mentions": [],
  "tags": [],
  "emojis": [],
  "card": null,
  "poll": null
}
